{
  "args": {}, 
  "data": "{\"firstname\":\"Window\",\"lastname\":\"J\"}", 
  "files": {}, 
  "form": {}, 
  "headers": {
    "Accept-Encoding": "gzip", 
    "Content-Length": "37", 
    "Content-Type": "application/json", 
    "Host": "httpbin.org", 
    "User-Agent": "Go-http-client/1.1", 
    "X-Amzn-Trace-Id": "Root=1-5e54d333-adb9dbc4be122f72496ffd6a"
  }, 
  "json": {
    "firstname": "Window", 
    "lastname": "J"
  }, 
  "origin": "161.246.147.216", 
  "url": "http://httpbin.org/post"
}
